{
"sites":[
##搜索系列
{"key":"csp_77","name":"🌈┃柒柒┃影视","type":3,"api":"csp_Kunyu77","searchable":1,"quickSearch":1,"filterable":1},
{"key": "豆瓣","name":"Ⓜ️┃豆瓣┃荐片","type":3,"api":"http://xn--sss604efuw.top/jm/js/drpy1.min.js","searchable":2,"quickSearch":1,"filterable":0,"ext":"http://xn--sss604efuw.top/jm/js/drpy.js"},
{"key": "dr_豆瓣","name":"🥗┃豆瓣┃影视","type": 3,"api": "https://agit.ai/alanchaotang/dr_py/raw/branch/main/libs/drpy2.min.js","searchable": 2,"quickSearch": 0,"filterable": 0,"ext": "https://agit.ai/alanchaotang/dr_py/raw/branch/main/js/drpy.js"},
{"key":"YiSo","name":"😹┃易搜┃搜索","type":3,"api":"csp_YiSo","searchable":1,"quickSearch":1,"filterable":0,"changeable":0,"ext":"http://192.168.1.4:5244/Alan/Alist/token.txt+4k|fhd|auto"},
{"key":"PanSou","name":"🦊┃盘搜┃搜索","type":3,"api":"csp_PanSou","searchable":1,"quickSearch":1,"filterable":0,"changeable":0,"ext":"http://192.168.1.4:5244/Alan/Alist/token.txt+4k|fhd|auto"},
{"key":"UpYun","name":"😻┃Up搜┃搜索","type":3,"api":"csp_UpYun","searchable":1,"quickSearch":1,"filterable":0,"changeable":0,"ext":"http://192.168.1.4:5244/Alan/Alist/token.txt+4k|fhd|auto"},
{"key":"七夜","name":"😾┃七夜┃搜索","type":3,"api":"csp_Dovx","searchable":1,"quickSearch":1,"filterable":0,"changeable":0,"ext":"http://192.168.1.4:5244/Alan/Alist/token.txt+4k|fhd|auto"},
{"key":"Zhaozy","name":"🐺┃找资源┃搜索","type":3,"api":"csp_Zhaozy","searchable":1,"quickSearch":1,"filterable":0,"changeable":0,"ext":"http://192.168.1.4:5244/Alan/Alist/token.txt+4k|fhd|auto$$$fanfan$$$qqq111"},
{"key":"PanSearch","name":"🙀┃Search┃阿里","type":3,"api":"csp_PanSearch","searchable":1,"quickSearch":1,"filterable":0,"ext":"http://192.168.1.4:5244/Alan/Alist/token.txt+4k|fhd|auto"},
//{"key":"push_agent","name":"🛴┃手机┃推送","type":3,"api":"csp_Push","searchable":0,"quickSearch":0,"filterable":0,"ext":"http://192.168.1.4:5244/Alan/Alist/token.txt"},
{"key":"AList","name": "🅿┃仙女┃搜索","type": "3","api":"csp_AList","changeable":"0","searchable":"1","ext": "https://agit.ai/alanchaotang/if/raw/branch/main/json/livealist.json"},
//{"key":"csp_Alist2","name": "🅿┃仙女┃搜索","type": 3,"api":"https://agit.ai/alanchaotang/dr_py/raw/branch/main/libs/alist.min.js","searchable":1,"quickSearch":1,"filterable":0,"ext":"https://agit.ai/alanchaotang/if/raw/branch/main/js/alist.json"},
//{"key":"AList","name":"😹┃ALis┃小雅","type": "3","api":"csp_AList","searchable":"1","ext": "https://ghproxy.net/http://raw.github.com/FongMi/CatVodSpider/main/json/alist.json","jar":"https://gitee.com/alanchaotang/data/raw/master/jar/fongmi_AList.jar"},
//{"key":"csp_XYQ_lu1","name":"🌈┃电视┃直播","type":3,"api":"csp_XYQHiker","searchable":1,"quickSearch":1,"filterable":0,"ext":"https://agit.ai/alanchaotang/if/raw/branch/main/js/mao.json"},
//{"key":"直播","name":"📡┃电视┃直播","type":3,"playerType":1,"api":"https://agit.ai/fantaiying/fty/raw/branch/master/JS/js/直播转点播.js","ext":"Box醒人室$https://agit.ai/fantaiying/fty/raw/branch/master/live.txt#影视范精选$https://agit.ai/fantaiying/fmm/raw/branch/main/tv/m3u/global.m3u&&&https://api.caonm.net/api/mc/"},
//{"key":"直播转点播","name":"📺︎┃电视┃点播","type": 3,"api":"https://agit.ai/alanchaotang/if/raw/branch/main/LIVE/live.js","searchable": 1,"quickSearch": 0,"filterable": 0,"ext": "https://agit.ai/alanchaotang/if/raw/branch/main/LIVE/zb.json"},
//{"key": "csp_XYQHiker_柠檬TV2","name":"🧼┃柠檬TV┃直播","type":3,"api":"csp_XYQHiker","searchable":1,"quickSearch":1,"filterable":1,"ext":"https://agit.ai/alanchaotang/if/raw/branch/main/json/柠檬TV2.json","jar":"https://agit.ai/alanchaotang/if/raw/branch/main/jar/xiangyaqing.jar"},
//{"key":"js豆瓣","name": "🐼┃豆瓣┃首页","type": 3,"api": "https://agit.ai/alanchaotang/dr_py/raw/branch/main/libs/drpy2.min.js","ext":"https://agit.ai/alanchaotang/dr_py/raw/branch/main/js/drpy.js","searchable": 0,"quickSearch": 0,"filterable": 0},
//{"key": "t4桉佬","name": "🍥┃豆瓣┃桉佬","type": 4,"api": "https://t4.secan.icu/vod?sites=all&ali_token=0c55c9f1c5cb4327ae2e51423276bb1e","searchable": 0,"quickSearch": 0,"filterable": 1},
//{"key":"csp_BBB","name":"🅱┃哔哩┃演唱","type":3,"api":"csp_Bili","searchable":1,"quickSearch":0,"filterable":1,"ext":"https://agit.ai/alanchaotang/if/raw/branch/main/json/bili.json"},
//{"key":"csp_Bili","name":"🅱┃哔哩┃合集","type": 3,"api": "csp_Bili","searchable": 1,"quickSearch": 0,"filterable": 1,"ext":"https://agit.ai/alanchaotang/if/raw/branch/main/json/bilibili_2.json"},
//{"key": "广播迷", "name": "📺︎┃电视台┃点播", "type": 3, "api": "csp_XBPQ","ext": {"分类": "央视$zy#北京$bj#上海$sh#天津$tj#重庆$cq#广东$gd#四川$sc#山东$sd#江苏$js#浙江$zj#河南$henan#河北$hebei#辽宁$ln#安徽$ah#湖南$hn#湖北$hubei#福建$fj#广西$gx#山西$sxi#云南$yn#贵州$gz#西藏$xz#宁夏$nx#海南$hainan#新疆$xj#甘肃$gs#青海$qh#黑龙江$hlj#内蒙古$nmg#港澳$hk", "编码": "GBK", "播放数组": "ax-grid ax-split-2 ax-space-md&&</ul>", "线路数组": "ax-btn*ax-padding ax-xl\">&&/a>[不包含:介绍]", "分类url": "http://www.guangbomi.com/tv/{cateId}/{catePg}.html[http://www.guangbomi.com/tv/{cateId}/index.html"}}, 
//{"key": "TV", "name": "📢┃全国电视┃广播", "type": 3, "api": "csp_XBPQ", "ext": {"分类": "央视$1#卫视$2#地方$3#港澳$4#综艺$zhibo/zongyi#体育$zhibo/sports#新闻$zhibo/xinwen#影视$zhibo/yingshi#影视$zhibo/shaoer#财经$zhibo/caijing#科教$zhibo/kejiao", "编码": "GBK", "图片": "http://hz752.love:63/pictu.php?type=302", "分类url": "http://tv.haoqu99.com/{cateId};;z", "数组": "<li class=\"p-item\">&&</li>"}}, 
{"key": "dr_好趣网","name":"📺┃好趣电视┃直播","type":3,"api":"https://agit.ai/alanchaotang/dr_py/raw/branch/main/libs/drpy2.min.js","searchable":2,"quickSearch":1,"filterable":0,"ext":"https://agit.ai/alanchaotang/dr_py/raw/branch/main/js/好趣网.js"},

##csp系列
{"key":"csp_YGP","name":"👙┃新片速递┃预告","type":3,"api":"csp_YGP","searchable":0,"quickSearch":0,"changeable":0},
//{"key": "新片场","name": "👙┃新片速递┃预告","type": 3,"api": "csp_XBPQ","playerType": "1","ext": "https://agit.ai/alanchaotang/if/raw/branch/main/json/new.json"},
{"key":"csp_WoGG","name":"💂🏿‍♀️┃玩偶哥哥┃8K","type":3,"api":"csp_WoGG","searchable":1,"quickSearch":1,"filterable":1,"changeable":0,"ext":"http://192.168.1.4:5244/Alan/Alist/token.txt+4k|fhd|auto$$$http://tvfan.xxooo.cf/"},
{"key":"csp_DuoX","name":"🧸┃玩偶多多┃4K","type":3,"api":"csp_DuoX","searchable":1,"quickSearch":1,"filterable":1},
{"key":"陌陌","name":"🍄┃蘑蘑姐姐┃4K","type":3,"api":"csp_MmYs","searchable":1,"quickSearch":1,"changeable":0},
//{"key": "蘑菇","name": "🍄┃蘑蘑姐姐┃4K","type": 3,"api": "csp_AppYsV2","searchable": 1,"quickSearch": 1,"filterable": 1,"ext": "https://www.moguys.xyz/api.php/app/"},
{"key": "小艺","name": "✒️┃武艺弟弟┃4K","type": 3,"api": "csp_AppYsV2","searchable": 1,"quickSearch": 1,"filterable": 1,"ext": "https://lg.tvcms.top/api.php/app/"},
{"key": "csp_mdd","name": "🥚┃蛋蛋妹妹┃4K","type": 3,"api": "csp_AppYsV2","searchable": 1,"quickSearch": 1,"filterable": 1,"ext": "http://app.mengdandan.com/xgapp.php/v1/"},
{"key":"北极狐", "name":"🦊┃北极狐┃4K", "type": 3, "api": "csp_AppYsV2", "searchable": 1, "quickSearch": 1, "filterable": 1, "playerType": "2", "ext": "https://www.kuin.one/api.php/app/"},
{"key":"探探","name":"🛩️┃侦探影视┃4K","type":3,"api":"csp_YT","searchable":1,"quickSearch":1,"filterable":1},
{"key":"csp_fantuan","name":"🍙┃饭团┃影视","type":3,"api":"csp_Fantuan","searchable":1,"quickSearch":1,"changeable":1,"ext":"https://www.fantuan3.com"},
{"key": "dr_LIBVIO","name":"🎃┃LIBVIO┃8K","type": 3,"api": "https://agit.ai/alanchaotang/dr_py/raw/branch/main/libs/drpy2.min.js","searchable": 2,"quickSearch": 0,"filterable": 0,"ext": "https://agit.ai/alanchaotang/dr_py/raw/branch/main/js/LIBVIO.js"},
{"key":"csp_Lib","name": "🌽┃LIBVIO┃8K","type": 3,"api": "csp_Libvio","searchable": 1,"quickSearch": 1,"filterable": 1,"ext":"https://tv.libvio.cc/"},
{"key": "ok","name": "🍃┃FreeOK┃影视","type": 3,"api": "csp_XBPQ","playerType": "1","ext": "https://agit.ai/alanchaotang/if/raw/branch/main/json/free.json"}, 
{"key":"csp_Vofl","name":"🏖┃Voflix┃影视","type":3,"api":"csp_Voflix","searchable":1,"quickSearch":1,"filterable":1},
{"key": "dr_vidhub","name":"🍬┃VIDHUB┃影视","type":3,"api": "https://agit.ai/alanchaotang/dr_py/raw/branch/main/libs/drpy2.min.js","searchable":2,"quickSearch":1,"filterable":0,"ext": "https://agit.ai/alanchaotang/dr_py/raw/branch/main/js/vidhub.js"},
{"key":"Vidhub视频","name": "🥗┃VIDHUB┃影视","type": 3,"api": "csp_XBPQ","searchable": 1,"quickSearch": 1,"filterable": 1,"ext":"https://agit.ai/alanchaotang/if/raw/branch/main/json/Vidhub.json"},
{"key":"优世界", "name": "🌍┃优世界┃4K", "type": 3, "api": "csp_AppYsV2", "searchable": 1, "quickSearch": 1, "filterable": 1, "playerType": "2", "ext": "https://dpg.laoxie.icu/api.php/app/"},
{"key":"csp_Czsapp","name":"📔┃厂长┃影视","type":3,"api":"csp_Czsapp","playerType":2,"searchable":1,"quickSearch":1,"changeable":1},
{"key":"明帝影视","name":"🔆┃明帝┃影视","type":3,"api":"csp_AppYsV2","searchable":1,"quickSearch":1,"filterable":1,"ext":"https://ys.md214.cn/api.php/app/"},
{"key":"酷酷","name":"🐵️┃酷酷┃影视","type":3,"api":"csp_AppYsV2","ext":"http://ys.realdou.cn/api.php/app/","categories":["4K电影","4K电视剧"]},
{"key": "爱迪V2","name": "💡️┃爱迪┃影视","type":3,"api":"csp_AppYsV2","ext":"https://aidiapp.xyz/xgapp.php/v2/"},
{"key":"黄黄","name":"😎┃黄黄┃影视","api":"csp_AppYsV2","type":3,"filterable":1,"quickSearch":1,"searchable":1,"ext":"https://api123.adys.app/xgapp.php/v3/"},
{"key": "csp_apple","name":"🍎┃小苹果┃影视","type":3,"api":"csp_LiteApple","playerType":1,"searchable":1,"quickSearch":1,"filterable":1},
{"key": "csp_DiDuan","name": "🐞┃低端┃影视","type": 3,"api": "csp_Ddrk","searchable": 1,"quickSearch": 1,"filterable": 0},
{"key": "速搜","name": "🚄┃速搜┃影视","type": 3,"api": "csp_XBPQ","playerType": "1","ext": "https://agit.ai/alanchaotang/if/raw/branch/main/json/速搜.json"}, 
{"key": "看看","name": "📐┃看看┃影视","type": 3,"api": "csp_XBPQ","ext": {"主页url": "https://kankanju.cc","请求头": "Cookie$filter_robot_dd=301","副标题": "pic-text text-right\">&&</b>","搜索模式": "1","搜索url": "https://kankanju.cc/rss.xml?wd={wd}","搜索图片": "http://xhww.fun:63/小米/4.jpeg","嗅探词": "huoshanvod.com#mp4#m3u8","影片类型": "<div class=\"module-info-tag\">&&立即播放","导演": "导演：&&</div>","主演": "主演：&&</div>","简介": "introduction-content\">&&</span>","线路数组": "data-toggle=&&</li>","跳转播放链接": "https://kankanju.cc/jx/play.php?url=+link_pre*url\":\"&&\"","二次跳转播放链接": "url*\"&&\"","线路标题": "\"tab\">&&</a>[不包含:线路1#线路2#线路3#]","分类": "电影$dianying#连续剧$dianshiju#综艺$zongyi#动漫$dongman#纪录片$jilupian","分类url": "https://kankanju.cc/vodshow/area/{area}/id/{cateId}/page/{catePg}/year/{year}.html;;m"}},
{"key":"csp_MeiJu69","name":"⛵️┃六九┃美剧","api":"csp_AppYsV2","type":3,"filterable":1,"quickSearch":1,"searchable":1,"ext":"https://www.69mj.com/xgapp.php/v2/","jar":"https://agit.ai/alanchaotang/if/raw/branch/main/jar/duoduo.jar"},
{"key": "apv2_瑞丰","name": "⛄┃瑞丰┃影视","type": 3,"api": "csp_AppYsV2","ext": "http://www.miniku.cc/xgapp.php/v2/"},	
{"key": "落叶","name": "🍂┃落叶┃影视","type": 3,"api": "csp_AppYsV2","searchable": 1,"quickSearch": 1,"filterable": 1,"ext": "http://xn--yeta099v.online:66/api.php/app/"},
{"key": "yunyun","name": "️🌤️芸芸┃影视","type": 3,"api": "csp_XBPQ","searchable": 1,"quickSearch": 1,"filterable": 0,"ext": "http://xhww.fun:63/小米/源/爱肥猫.json"},
{"key":"4KHDR","name":"🦹┃4KHDR┃影视","type":3,"api":"csp_XYQHikerAL","searchable":1,"quickSearch":1,"filterable":1,"ext":"https://agit.ai/alanchaotang/if/raw/branch/main/json/4KHDR.json","jar":"https://agit.ai/alanchaotang/if/raw/branch/main/jar/xiangyaqing.jar"},

##官源系列
{"key":"drpy_js_ddys","name": "🐓┃低端影视┃官源","type": 3,"api": "https://jihulab.com/duomv/duo/-/raw/main/js/drpymin.js","ext": "https://jihulab.com/duomv/duo/-/raw/main/js/ddys.js"},
{"key":"dr_布雷蓝光","name":"💥┃布雷影视┃官源","type":3,"api":"https://agit.ai/alanchaotang/dr_py/raw/branch/main/libs/drpy2.min.js","searchable":2,"quickSearch":1,"filterable":0,"ext":"https://agit.ai/alanchaotang/dr_py/raw/branch/main/js/布雷蓝光.js"},
{"key": "csp_XYQHiker_布蕾蓝光影城","name": "🐠┃布蕾蓝光┃影城","type": 3,"api": "csp_XYQHiker","searchable": 1,"quickSearch": 1,"filterable": 1,"ext": "https://agit.ai/alanchaotang/if/raw/branch/main/json/布蕾蓝光影城.json","jar": "https://agit.ai/alanchaotang/if/raw/branch/main/jar/xiangyaqing.jar"},
{"key":"csp_BuLei","name":"💣┃布雷影视┃饭硬","type":3,"api":"csp_BuLei","searchable":1,"quickSearch":1,"filterable":1,"ext":"http://饭太硬.ml/$$$auto$$$sdlw1111$$$qqaa1122"},
{"key":"dr_百忙无果","name":"🍋┃芒果TV┃官源","type":3,"api":"https://agit.ai/alanchaotang/dr_py/raw/branch/main/libs/drpy2.min.js","searchable":2,"quickSearch":0,"filterable": 1,"ext":"https://agit.ai/alanchaotang/dr_py/raw/branch/main/js/百忙无果.js"},
{"key":"dr_360影视","name":"💫┃360影视┃官源","type":3,"api":"https://agit.ai/alanchaotang/dr_py/raw/branch/main/libs/drpy2.min.js","searchable":2,"quickSearch":0,"filterable":0,"ext":"https://agit.ai/alanchaotang/dr_py/raw/branch/main/js/360影视.js"},
{"key":"360影视","name":"🏳️‍🌈┃360影视┃官源","type":3,"api":"csp_SP360","searchable":1,"quickSearch":1,"filterable":1,"changeable":0,"ext":"","jar":"https://agit.ai/alanchaotang/if/raw/branch/main/jar/YSC.jar"},
//{"key":"360影视","name":"🌶┃360影视┃官源","type":3,"api":"csp_SP360","searchable":1,"quickSearch":1,"filterable":1,"changeable":0,"ext": "http://xhww.fun:63/小米/源/360.json"},
{"key":"Itv","name":"🥝┃奇异果┃官源","type":3,"api":"csp_Itv","quickSearch":1,"searchable":1,"filterable":1,"changeable":0,"ext":"","jar":""},
{"key":"drpy_js_奇珍异兽","name":"🐨┃爱奇艺┃官源","type":3,"api":"https://agit.ai/alanchaotang/dr_py/raw/branch/main/libs/drpy2.min.js","ext":"https://agit.ai/alanchaotang/dr_py/raw/branch/main/js/奇珍异兽.js"},
{"key": "dr_腾云驾雾","name": "🐧┃腾讯视频┃官源","type": 3,"api": "https://agit.ai/alanchaotang/dr_py/raw/branch/main/libs/drpy2.min.js","searchable": 2,"quickSearch": 0,"filterable": 1,"ext": "https://agit.ai/alanchaotang/dr_py/raw/branch/main/js/腾云驾雾.js"},
{"key": "dr_优酷","name": "🍉┃优酷TV┃官源","type": 3,"api": "https://agit.ai/alanchaotang/dr_py/raw/branch/main/libs/drpy2.min.js","searchable": 2,"quickSearch": 0,"filterable": 1,"ext": "https://agit.ai/alanchaotang/dr_py/raw/branch/main/js/优酷.js"},
{"key": "dr_菜狗","name": "🐶┃菜狗TV┃官源","type": 3,"api": "https://agit.ai/alanchaotang/dr_py/raw/branch/main/libs/drpy2.min.js","searchable": 2,"quickSearch": 0,"filterable": 1,"ext": "https://agit.ai/alanchaotang/dr_py/raw/branch/main/js/菜狗.js"},
{"key": "奇优影院","name": "🐸┃奇优TV┃官源","type": 3,"api": "csp_XBPQ","searchable": 1,"quickSearch": 1,"filterable": 1,"ext": "https://gitee.com/alanchaotang/data/raw/master/js/%E5%A5%87%E4%BC%98%E5%BD%B1%E9%99%A2.json"},
{"key": "dr_酷云77","name": "💋┃酷云77┃官源","type": 3,"api": "https://agit.ai/alanchaotang/dr_py/raw/branch/main/libs/drpy2.min.js","searchable": 2,"quickSearch": 0,"filterable": 1,"ext": "https://agit.ai/alanchaotang/dr_py/raw/branch/main/js/酷云77.js"},
{"key":"dr_爱壹帆","name":"⛵┃爱壹帆┃影视","type":3,"api":"https://agit.ai/alanchaotang/dr_py/raw/branch/main/libs/drpy2.min.js","searchable":2,"quickSearch":0,"filterable":1,"ext":"https://agit.ai/alanchaotang/dr_py/raw/branch/main/js/爱壹帆[飞].js"},
{"key":"csp_Nbys","name":"🛫┃泥巴┃VPN","type":3,"api":"csp_NiNi","searchable":1,"quickSearch":1,"filterable":1},
{"key":"csp_trj","name": "🛫┃唐人街┃VPN","type": 3,"api": "csp_Tangrenjie","searchable": 1,"quickSearch": 1,"filterable": 1},

##超可爱系列
{"key": "多米蓝光","name": "🌶┃多米┃影视","type": 3,"api": "csp_AppYsV2","searchable": 1,"quickSearch": 1,"filterable": 1,"ext": "http://vod.dmdh.top:5680//api.php/app/"},
{"key":"csp_AppYsV2_如意4K","name":"🍼┃如意4k|追剧","type":3,"api":"csp_AppYsV2","searchable":1,"quickSearch":1,"filterable":1,"ext":"http://cms.maoyingshi.cc/api.php/app/"},
{"key": "csp_XYQHiker_影渣渣影视","name":"🍲┃影渣渣┃影视","type":3,"api":"csp_XYQHiker","searchable":1,"quickSearch":1,"filterable":1,"ext":"https://agit.ai/alanchaotang/if/raw/branch/main/json/影渣渣影视.json","jar":"https://agit.ai/alanchaotang/if/raw/branch/main/jar/xiangyaqing.jar"},
{"key": "csp_XYQHiker_红领巾影院","name":"🧣┃红领巾┃影院","type":3,"api":"csp_XYQHiker","searchable":1,"quickSearch":1,"filterable":1,"ext":"https://agit.ai/alanchaotang/if/raw/branch/main/json/红领巾影院.json","jar":"https://agit.ai/alanchaotang/if/raw/branch/main/jar/xiangyaqing.jar"},
{"key": "csp_Xinsj","name":"👔┃新视觉┃影视","type":3,"api": "csp_Xinsj","searchable":1,"quickSearch":1,"filterable":1,"ext": "https://www.6080dy3.com"},
{"key": "真不卡影视","name":"🚒┃真不卡┃影视","type":3,"api":"csp_XYQHiker","playerType":2,"searchable":1,"quickSearch":1,"filterable":1,"ext":"https://gitee.com/alanchaotang/data/raw/master/js/dianyinghezi.json","jar":"https://agit.ai/alanchaotang/if/raw/branch/main/jar/xiangyaqing.jar"},
{"key":"csp_XBPQ_ 零零七","name":"🆎┃零零柒┃影视","type":3,"api":"csp_XBPQ","searchable":1,"quickSearch":1,"filterable":0,"ext":"https://gitee.com/alanchaotang/data/raw/master/js/%E9%9B%B6%E9%9B%B6%E6%9F%92.json"},
{"key":"csp_XYQHiker素白白","name":"🐝┃素白白┃影视","type":3,"api":"csp_XYQHiker","searchable":1,"quickSearch":1,"filterable":0,"ext":"https://gitee.com/alanchaotang/data/raw/master/js/%E7%B4%A0%E7%99%BD%E7%99%BD%E5%BD%B1%E8%A7%86.json","jar":"https://agit.ai/alanchaotang/if/raw/branch/main/jar/xiangyaqing.jar"},
{"key": "csp_YQKAPP","name": "👨‍👩‍👧‍👦┃一起看┃影视","type": 3,"api": "csp_YQKAPP","playerType": 2,"searchable": 1,"quickSearch": 1,"filterable": 1,"ext": "https://api-aws.11ty.top"},
{"key": "csp_XYQHiker_星辰影院","name":"⭐️┃星辰┃影院","type":3,"api":"csp_XYQHiker","searchable":1,"quickSearch":1,"filterable":1,"ext":"https://agit.ai/alanchaotang/if/raw/branch/main/json/星辰影院.json","jar":"https://agit.ai/alanchaotang/if/raw/branch/main/jar/xiangyaqing.jar"},
{"key": "csp_XYQHiker_秋霞电影","name":"🍃┃秋霞┃电影","type":3,"api":"csp_XYQHiker","searchable":1,"quickSearch":1,"filterable":1,"ext":"https://agit.ai/alanchaotang/if/raw/branch/main/json/秋霞电影.json","jar":"https://agit.ai/alanchaotang/if/raw/branch/main/jar/xiangyaqing.jar"},
{"key": "csp_XYQHiker_星空影视","name":"✴️┃星空┃影视","type":3,"api":"csp_XYQHiker","searchable":1,"quickSearch":1,"filterable":1,"ext":"https://agit.ai/alanchaotang/if/raw/branch/main/json/星空影视.json","jar":"https://agit.ai/alanchaotang/if/raw/branch/main/jar/xiangyaqing.jar"},
{"key": "csp_XYQHiker_达达龟","name":"🐢┃达达龟┃影视","type":3,"api":"csp_XYQHiker","searchable":1,"quickSearch":1,"filterable":1,"ext":"https://agit.ai/alanchaotang/if/raw/branch/main/json/达达龟.json","jar":"https://agit.ai/alanchaotang/if/raw/branch/main/jar/xiangyaqing.jar"},
{"key": "速度","name": "🛩️┃速度追剧|影视","type": 3,"api": "csp_XBPQ","playerType": "1","ext": {"站名": "子子影视","嗅探词":".mp4#m3u8","主页url": "http://sudu.hdvod.top","分类": "电影$1#电视剧$2#动漫$4#综艺$3", "分类url": "http://sudu.hdvod.top/index.php/vod/show/area/{area}/id/{cateId}/page/{catePg}/year/{year}.html;;m"}},
{"key": "csp_XYQHiker_御龙高清影视","name":"🐲┃御龙高清┃影视","type":3,"api":"csp_XYQHiker","searchable":1,"quickSearch":1,"filterable":1,"ext":"https://agit.ai/alanchaotang/if/raw/branch/main/json/一龙高清影视.json","jar":"https://agit.ai/alanchaotang/if/raw/branch/main/jar/xiangyaqing.jar"},

##超爱系列
{"key":"csp_Lgyy","name":"💧┃蓝光┃影视","type":3,"api":"csp_Lgyy","searchable":1,"quickSearch":1,"filterable":1,"ext":"https://www.lgyy.vip"},
{"key":"csp_Bd","name":"🐟┃哔嘀┃影视","type":3,"api":"csp_Bdys01","searchable":1,"quickSearch":1,"filterable":1},
{"key": "csp_AppMr","name": "👻┃明明┃影视","type": 3,"api": "csp_AppMr","searchable": 1,"quickSearch": 1,"filterable": 1},
{"key":"黑料影视", "name": "👿┃黑料┃影视","type": 3,"api":"csp_XPathFilter","searchable": 1,"quickSearch": 1,"filterable": 1,"ext": "https://gitee.com/alanchaotang/data/raw/master/js/%E9%BB%91%E6%96%99.json"},
{"key":"csp_kuaikan","name":"👀┃快看┃影视","type":3,"api":"csp_Kuaikan","searchable":1,"quickSearch":1,"filterable":1},
{"key": "csp_Btwtoo","name": "🐽┃鼻涕┃影视","type": 3,"api": "csp_Bttwoo","searchable": 1,"quickSearch": 1,"filterable": 1},
{"key":"宝仙HD","name":"👨‍🌾┃宝仙┃影视","type":3,"api":"csp_XBPQ","searchable":1,"quickSearch":1,"filterable":0,"ext":"https://gitee.com/alanchaotang/data/raw/master/js/baoxian.json"},
{"key": "无名小站","name":"🎫┃湯氏┃影視","type": 3,"api": "csp_XBPQ","searchable": 1,"quickSearch": 1,"filterable": 1,"ext": "https://gitee.com/alanchaotang/data/raw/master/js/%E6%97%A0%E5%90%8D%E5%B0%8F%E7%AB%99.json","jar":"https://gitee.com/alanchaotang/data/raw/master/jar/%E8%8F%9C%E5%A6%AE%E4%B8%9D.jar"},
{"key":"csp_zxzjH3","name":"📗┃在线┃影视","type":3,"api":"csp_ZxzjH3","searchable":1,"quickSearch":1,"filterable":1,"ext":"https://www.zxzj.pro/"},
{"key":"csp_SP33","name":"📺┃叁叁┃影视","type":3,"api":"csp_SP33","searchable":1,"quickSearch":1,"filterable":1,"changeable":0,"ext": "","jar":""},
{"key":"lzi","name":"👻┃量子┃资源","type":1,"api":"https://cj.lziapi.com/api.php/provide/vod/","searchable":1,"quickSearch":1,"filterable":0,"categories":["动作片","喜剧片","爱情片","科幻片","恐怖片","剧情片","战争片","国产剧","香港剧","韩国剧","欧美剧","记录片","台湾剧","日本剧","海外剧","泰国剧","大陆综艺","港台综艺","日韩综艺","欧美综艺","国产动漫","日韩动漫","欧美动漫","港台动漫","海外动漫","伦理片"]},
{"key":"csp_AppTT","name":"🗺️┃图图┃影视","type":3,"api":"csp_AppTT","searchable":1,"quickSearch":1,"filterable":1,"ext":"U2c3aDRRb0xMQnpWVjRhY1NSSyNIdW8wTkVCZG91ZWw=$$$U3FYMms0cWJZR2kzbzZzWQ==$$$aHR0cDovL2FwaS50dDU4LnR2L2NvbmZpZy9uZXd0di5qc29uP3NzPQ=="},
{"key":"AppTT","name":"🐰┃图图┃唐三","type":"3","api":"csp_Dora","changeable":"0","searchable":"1","quickSearch":"1","filterable":"1","ext":"110c922de7d69804467fb83d3bb664b5","jar":"https://agit.ai/alanchaotang/if/raw/branch/main/jar/tangs.jar"},
{"key":"熊熊","name":"🐻┃熊熊┃影院","type":"1","api":"https://v.3412.net.cn/macapi.php/provide/vod","playUrl":"https://player.3412.net.cn/?url=","searchable":"1","changeable":"1"},
{"key":"csp_Dy1010","name":"🥁┃双十┃影视","type":3,"api":"csp_Dy1010","searchable":1,"quickSearch":1,"filterable":1},
{"key":"csp_panghu","name":"🐯┃胖虎┃影视","type":3,"api":"csp_Panghu","searchable":1,"quickSearch":1,"filterable":1,"ext": "","jar":"https://agit.ai/alanchaotang/if/raw/branch/main/jar/xiangyaqing.jar"},
{"key": "csp_XBPQ秋霞影视","name": "️🍂┃秋霞┃影视","type": 3,"api": "csp_XBPQ","searchable": 1,"quickSearch": 1,"filterable": 0,"ext": {"分类":"电影$1#连续剧$2#动漫$4#综艺$3","分类url":"https://www.qiuxia360.com/vodshow/{cateId}-{area}-{by}-{class}-----{catePg}---{year}.html;;val","跳转播放链接": "https://www.jfxz689.com/?url=+vod_class*url\":\"&&\"+&tm=+\"tm\":&&,+&key=+\"key\"*\"&&\"","二次跳转播放链接": "https://www.jfxz689.com/API.php;post;url=+\"url\"*\"&&\"+&time=+\"time\"*\"&&\"+&key=+\"key\"*\"&&\"","三次跳转播放链接": "\"url\"*\"&&\""}},
{"key": "csp_XYQH追兔","name": "🐜┃追兔┃影院","type": 3,"api": "csp_XYQHiker","searchable": 1,"quickSearch": 1,"filterable": 1,"ext":"https://agit.ai/alanchaotang/if/raw/branch/main/json/追兔.json","jar":"https://gitee.com/alanchaotang/data/raw/master/jar/xo.jar"},
{"key": "csp_XYQH野马","name": "️🌸┃野马┃影视","type": 3,"api": "csp_XYQHiker","searchable": 1,"quickSearch": 1,"filterable": 1,"ext":"https://agit.ai/alanchaotang/if/raw/branch/main/json/野马.json","jar":"https://gitee.com/alanchaotang/data/raw/master/jar/xo.jar"},
{"key": "csp_xBPQ_HDIK","name": "☘️┃HDIK┃影视","type": 3,"api": "csp_XBPQ","searchable": 1,"quickSearch": 1,"filterable": 0,"ext": "https://gitee.com/alanchaotang/data/raw/master/js/HDIK.json"},
{"key": "快播","name": "💫┃快播┃影视","type": 1,"api": "https://www.kuaibozy.com/api.php/provide/vod/","searchable": 1,"filterable": 0,"switchable": 1,"categories":["动漫","国产剧","日韩剧","港台剧","欧美剧","泰剧","动作片","喜剧片","爱情片","科幻片","恐怖片","剧情片","战争片","纪录片","综艺"]},
{"key":"csp_555","name":"5️⃣️┃555┃影视","type":3,"api":"csp_XBPQ","searchable":1,"quickSearch":1,"filterable":0,"ext":"https://gitee.com/alanchaotang/data/raw/master/js/555.json"},

##折腾系列
{"key": "新片热播","name": "🔷┃新片┃热播","type": 1,"api": "https://api.iku.cool/api.php/provide/vod/?ac=list","searchable": 1,"quickSearch": 1,"filterable": 0,"categories": ["连续剧","动漫"],"ext": "","jar":""},
{"key": "csp_XYQBiu_磁力熊","name": "🎬️┃熊熊┃磁力","type": 3,"api": "csp_XYQBiu","searchable": 1,"quickSearch": 1,"filterable": 1,"ext": "https://agit.ai/alanchaotang/if/raw/branch/main/json/磁力熊.json","jar":""},
{"key": "csp_XYQHikerdyx","name":"🛥️┃港港┃磁力","type":3,"api":"csp_XYQHiker","searchable":1,"quickSearch":1,"filterable":1,"ext":"https://agit.ai/alanchaotang/if/raw/branch/main/json/电影港.json","jar":"https://agit.ai/alanchaotang/if/raw/branch/main/jar/Hiker.jar;md5;281A875D78ABB81EB9716951FD20E530"}, 	
{"key":"mtv_pc_yinfans","name":"🦞┃范丝┃磁力","type":3,"api":"csp_XPath","searchable":1,"quickSearch":1,"filterable":1,"ext":"https://agit.ai/alanchaotang/if/raw/branch/main/json/音范丝.json"},	
{"key": "csp_xml_非凡资源","name": "🥗┃非凡┃资源","type": 1,"api": "http://cj.ffzyapi.com/api.php/provide/vod/","playurl":"https://jxjson.cf/?url=","searchable": 1,"quickSearch": 1,"filterable": 1,"categories": ["动作片","喜剧片","科幻片","恐怖片","爱情片","剧情片","战争片","记录片","国产剧","欧美剧","香港剧","韩国剧","台湾剧","日本剧","海外剧","泰国剧","国产动漫","日韩动漫","欧美动漫","港台动漫","海外动漫","大陆综艺","港台综艺","日韩综艺","欧美综艺"]},
{"key": "量子资源","name": "🥑┃量子┃资源","type": 1,"api": "http://cj.lziapi.com/api.php/provide/vod/","playurl":"https://jxjson.cf/?url=","searchable": 1,"quickSearch": 1,"filterable": 0,"categories": ["国产剧","国产动漫","泰国剧","台湾剧","香港剧","欧美剧","韩国剧","日本剧","动漫","体育","剧情片","动作片","爱情片","喜剧片"]},
{"key": "花猫影视","name": "🐱┃花猫┃影视","type": 3,"api": "csp_XBPQ","searchable": 1,"quickSearch": 1,"filterable": 0,"ext": "https://agit.ai/alanchaotang/if/raw/branch/main/json/花猫影视.json"},
{"key":"csp_8K","name":"🐏┃八仟┃电影","type":1,"api":"http://tvappjsonapi.8kvod.com/8kvodapilgxcsssss.php/provide/vod/","playUrl":"json:http://47.119.122.235:5566/json/free.php?url="},	
{"key": "zy_新浪资源","name": "🏄🏻┃新浪┃影视","type": 1,"api": "https://api.xinlangapi.com/xinlangapi.php/provide/vod/","searchable": 1,"quickSearch": 1,"filterable": 0,"categories": ["动漫","综艺","纪录片","动作片","爱情片","科幻片","战争片","剧情片","恐怖片","喜剧片","大陆剧","港澳剧","台湾剧","欧美剧","动漫电影","韩剧","日剧","泰剧","体育"]},
{"key": "csp_XBPQxg","name": "🍉┃西瓜┃官源","type": 3,"api": "csp_XBPQ","searchable": 1,"quickSearch": 1,"filterable": 1,"ext": "https://agit.ai/alanchaotang/if/raw/branch/main/json/西瓜影视.json"},
{"key": "莫扎兔","name": "🐰┃莫扎兔┃影视","type": 3,"api": "csp_XBPQ","searchable": 1,"quickSearch": 1,"filterable": 1,"ext": "https://agit.ai/alanchaotang/if/raw/branch/main/json/莫扎兔.json","jar":""},

##网上收集系列
{"key":"XBPQ_fant","name":"🍙┃饭团┃影视","type":3,"api":"csp_XBPQ","filterable":1,"quickSearch":1,"searchable":1,"ext":"https://gitee.com/alanchaotang/data/raw/master/js/%E9%A5%AD%E5%9B%A2.json"},
{"key":"csp_xbb_茶杯狐","name":"🐯┃茶杯狐┃影视","type":3,"api":"csp_XBiubiu","searchable":1,"quickSearch":1,"filterable":0,"ext":"https://gitee.com/alanchaotang/TangTV/raw/master/XB/%E8%8C%B6%E6%9D%AF%E7%8B%90.json","jar":"https://gitee.com/alanchaotang/data/raw/master/jar/%E8%8C%B6%E6%9D%AF%E7%8B%90.jar;md5;b061493a35694916616fb2903324cfdf"},
{"key":"csp_XBPQ_映迷影院","name":"🐾┃映迷┃影视","type":3,"api":"csp_XBPQ","searchable":1,"quickSearch":1,"filterable":1,"ext":"https://agit.ai/alanchaotang/if/raw/branch/main/json/yingmiyingyuan.json"},
{"key":"csp_XYQBiu_凌云影视","name":"🍭┃凌云┃影视","type":3,"api":"csp_XYQBiu","searchable":1,"quickSearch":1,"filterable":0,"ext":"https://gitee.com/alanchaotang/TangTV/raw/master/XB/%E5%87%8C%E4%BA%91%E8%A7%86%E9%A2%91%E9%9F%A9%E5%9B%BD.json","jar":"https://gitee.com/alanchaotang/TangTV/raw/master/jar/XYQBiu_0828.jar"},
{"key": "csp_biubiu_骚火电影","name": "🏮┃骚火┃影视","type": 3,"api": "csp_XBPQ","searchable": 1,"quickSearch": 1,"filterable": 1,"ext": "https://yydsys.top/duo/json/%E9%AA%9A%E7%81%AB%E7%94%B5%E5%BD%B1.json"},
{"key":"乐猪","name":"🐽┃乐猪┃影视","type":3,"api":"csp_XBPQ","searchable":1,"quickSearch":1,"filterable":1,"ext":"https://agit.ai/alanchaotang/if/raw/branch/main/json/lezhu.json","jar":"https://agit.ai/alanchaotang/if/raw/branch/main/jar/Yoursmile.jar"},
{"key":"csp_Nmys","name":"👨‍🌾┃农民┃影视","type":3,"api":"csp_Nmys","searchable":1,"quickSearch":1,"filterable":1,"ext":"https://ghproxy.net/http://raw.github.com/alantang1977/X/master/json/Nmys.json"},
{"key":"csp_Ysgc","name":"🏭┃工厂┃影视","type":3,"api":"csp_Ysgc","searchable":1,"quickSearch":1,"filterable":1,"ext":"https://www.ysgc.vip"},
{"key":"csp_Cokemv","name":"📕┃Cokemv┃影视","type":3,"api":"csp_Cokemv","playerType":2,"searchable":1,"quickSearch":1,"filterable":1},
{"key": "野荷塘","name": "🍀┃野荷塘┃影视","type": 3,"api": "csp_XBPQ","searchable": 1,"quickSearch": 1,"filterable": 1,"ext": "https://gitee.com/alanchaotang/data/raw/master/js/%E9%87%8E%E8%8D%B7%E5%A1%98.json","jar":""},
{"key":"csp_Auete","name":"🐼┃Auete┃影视","type": 3,"api":"csp_Auete","searchable":1,"quickSearch":1,"filterable":1},
{"key":"csp_Dm84","name":"🚌┃动漫巴士┃影视","type":3,"api":"csp_Dm84","searchable":1,"quickSearch":1,"filterable":1},

##dr_js系列
{"key": "dr_侦探","name":"🕵️┃侦探┃影视","type":3,"api":"https://agit.ai/alanchaotang/dr_py/raw/branch/main/libs/drpy2.min.js","searchable":2,"quickSearch":1,"filterable":0,"ext":"https://agit.ai/alanchaotang/if/raw/branch/main/js/zhentan.js"},
{"key": "dr_voflix","name":"⛲┃VoflixHD┃影视","type":3,"api":"https://agit.ai/alanchaotang/dr_py/raw/branch/main/libs/drpy2.min.js","searchable":2,"quickSearch":1,"filterable":0,"ext":"https://agit.ai/alanchaotang/dr_py/raw/branch/main/js/voflix.js"},
{"key": "dr_FreeOK","name":"🐻┃FreeOK┃影视","type":3,"api": "https://agit.ai/alanchaotang/dr_py/raw/branch/main/libs/drpy2.min.js","searchable":2,"quickSearch":1,"filterable":0,"ext": "https://agit.ai/alanchaotang/dr_py/raw/branch/main/js/FreeOK.js"},
{"key": "dr_看一看","name":"👁┃看一看┃影视","type":3,"api": "https://agit.ai/alanchaotang/dr_py/raw/branch/main/libs/drpy2.min.js","searchable":2,"quickSearch":1,"filterable":0,"ext": "https://agit.ai/alanchaotang/dr_py/raw/branch/main/js/看一看影视.js"},
{"key": "dr_啊班","name":"🪲┃啊班┃影视","type":3,"api":"https://agit.ai/alanchaotang/dr_py/raw/branch/main/libs/drpy2.min.js","searchable":2,"quickSearch":1,"filterable":0,"ext":"https://agit.ai/alanchaotang/dr_py/raw/branch/main/js/啊班[V2].js"},
{"key": "dr_花猪","name":"🐷┃花猪┃影视","type":3,"api":"https://agit.ai/alanchaotang/dr_py/raw/branch/main/libs/drpy2.min.js","searchable":2,"quickSearch":1,"filterable":0,"ext":"https://agit.ai/alanchaotang/dr_py/raw/branch/main/js/花猪影视[V2].js"},
{"key": "dr_奈飞","name":"🛩️┃奈飞┃影视","type":3,"api": "https://agit.ai/alanchaotang/dr_py/raw/branch/main/libs/drpy2.min.js","searchable":2,"quickSearch":1,"filterable":0,"ext": "https://agit.ai/alanchaotang/dr_py/raw/branch/main/js/奈飞中文.js"},
{"key": "dr_西瓜","name":"🍉┃西瓜┃影视","type":3,"api": "https://agit.ai/alanchaotang/dr_py/raw/branch/main/libs/drpy2.min.js","searchable":2,"quickSearch":1,"filterable":0,"ext": "https://agit.ai/alanchaotang/dr_py/raw/branch/main/js/西瓜影院.js"},
{"key": "dr_咕噜","name":"🍵┃咕噜┃影视","type":3,"api": "https://agit.ai/alanchaotang/dr_py/raw/branch/main/libs/drpy2.min.js","searchable":2,"quickSearch":1,"filterable":0,"ext": "https://agit.ai/alanchaotang/dr_py/raw/branch/main/js/咕噜.js"},
{"key": "dr_番茄","name":"🍅┃番茄┃影视","type":3,"api": "https://agit.ai/alanchaotang/dr_py/raw/branch/main/libs/drpy2.min.js","searchable":2,"quickSearch":1,"filterable":0,"ext": "https://agit.ai/alanchaotang/dr_py/raw/branch/main/js/番茄影视.js"},
{"key": "dr_电影先生","name":"🤵┃电影先生┃影视","type": 3,"api": "https://agit.ai/alanchaotang/dr_py/raw/branch/main/libs/drpy2.min.js","searchable": 2,"quickSearch": 0,"filterable": 0,"ext": "https://agit.ai/alanchaotang/dr_py/raw/branch/main/js/电影先生.js"},
{"key": "dr_8K影视","name":"🗺┃8K影院┃影视","type": 3,"api": "https://agit.ai/alanchaotang/dr_py/raw/branch/main/libs/drpy2.min.js","searchable": 2,"quickSearch": 0,"filterable": 0,"ext": "https://agit.ai/alanchaotang/if/raw/branch/main/js/8K影视.js"},
{"key": "dr_91free","name":"🅰️┃91free┃影视","type": 3,"api": "https://agit.ai/alanchaotang/dr_py/raw/branch/main/libs/drpy2.min.js","searchable": 2,"quickSearch": 0,"filterable": 0,"ext": "https://agit.ai/alanchaotang/dr_py/raw/branch/main/js/91free.js"},
{"key": "dr_Nike","name":"🚲┃Nike┃影视","type": 3,"api": "https://agit.ai/alanchaotang/dr_py/raw/branch/main/libs/drpy2.min.js","searchable": 2,"quickSearch": 0,"filterable": 0,"ext": "https://agit.ai/alanchaotang/dr_py/raw/branch/main/js/Nike影视.js"},
{"key": "dr_Auete","name":"👺┃Auete┃影视","type": 3,"api": "https://agit.ai/alanchaotang/dr_py/raw/branch/main/libs/drpy2.min.js","searchable": 2,"quickSearch": 0,"filterable": 0,"ext": "https://agit.ai/alanchaotang/dr_py/raw/branch/main/js/Auete.js"},
{"key": "dr_NFM","name":"✈️┃NFM┃影视","type": 3,"api": "https://agit.ai/alanchaotang/dr_py/raw/branch/main/libs/drpy2.min.js","searchable": 2,"quickSearch": 0,"filterable": 0,"ext": "https://agit.ai/alanchaotang/if/raw/branch/main/js/NFM影视.js"},
{"key": "dr_影视工厂","name":"📽️┃影视工厂┃影视","type": 3,"api": "https://agit.ai/alanchaotang/dr_py/raw/branch/main/libs/drpy2.min.js","searchable": 2,"quickSearch": 0,"filterable": 0,"ext": "https://agit.ai/alanchaotang/dr_py/raw/branch/main/js/影视工厂.js"},
{"key": "dr_影视工场","name":"💫┃影视工场┃影视","type": 3,"api": "https://agit.ai/alanchaotang/dr_py/raw/branch/main/libs/drpy2.min.js","searchable": 2,"quickSearch": 0,"filterable": 0,"ext": "https://agit.ai/alanchaotang/dr_py/raw/branch/main/js/影视工场.js"},
{"key": "dr_9U电影","name":"💸┃9U电影┃影视","type": 3,"api": "https://agit.ai/alanchaotang/dr_py/raw/branch/main/libs/drpy2.min.js","searchable": 2,"quickSearch": 0,"filterable": 0,"ext": "https://agit.ai/alanchaotang/dr_py/raw/branch/main/js/9U电影.js"},
{"key": "dr_l0l","name":"🚨┃l0l电影┃影视","type": 3,"api": "https://agit.ai/alanchaotang/dr_py/raw/branch/main/libs/drpy2.min.js","searchable": 2,"quickSearch": 0,"filterable": 0,"ext": "https://agit.ai/alanchaotang/dr_py/raw/branch/main/js/l0l.js"},
{"key": "dr_139影视","name":"🥨┃139电影┃影视","type": 3,"api": "https://agit.ai/alanchaotang/dr_py/raw/branch/main/libs/drpy2.min.js","searchable": 2,"quickSearch": 0,"filterable": 0,"ext": "https://agit.ai/alanchaotang/dr_py/raw/branch/main/js/139影视.js"},
{"key": "dr_新片场","name":"👹┃新片场┃影视","type": 3,"api": "https://agit.ai/alanchaotang/dr_py/raw/branch/main/libs/drpy2.min.js","searchable": 2,"quickSearch": 0,"filterable": 0,"ext": "https://raw.iqiq.io/alantang1977/dr_py/main/js/新片场.js"},
{"key": "dr_鸭奈飞","name":"🦆┃鸭奈飞┃影视","type": 3,"api": "https://agit.ai/alanchaotang/dr_py/raw/branch/main/libs/drpy2.min.js","searchable": 2,"quickSearch": 0,"filterable": 0,"ext": "https://agit.ai/alanchaotang/if/raw/branch/main/js/yanaifei.js"},
{"key": "dr_剧荒TV","name": "📺︎┃剧荒TV┃影视","type": 3,"api": "https://agit.ai/alanchaotang/dr_py/raw/branch/main/libs/drpy2.min.js","searchable": 2,"quickSearch": 0,"filterable": 0,"ext": "https://agit.ai/alanchaotang/dr_py/raw/branch/main/js/剧荒TV.jsd"},
{"key": "dr_69美剧","name":"✨┃69美剧┃影视","type":3,"api":"https://agit.ai/alanchaotang/dr_py/raw/branch/main/libs/drpy2.min.js","searchable":2,"quickSearch":1,"filterable":0,"ext":"https://agit.ai/alanchaotang/dr_py/raw/branch/main/js/69美剧[V2].js"},
{"key": "dr_皮皮鸭","name":"🍎┃皮皮鸭┃影视","type": 3,"api": "https://agit.ai/alanchaotang/dr_py/raw/branch/main/libs/drpy2.min.js","searchable": 2,"quickSearch": 0,"filterable": 0,"ext": "https://agit.ai/alanchaotang/dr_py/raw/branch/main/js/皮皮鸭.js"},
{"key": "dr_bttwoo","name":"👬┃BTtwoo┃影视","type":3,"api":"https://agit.ai/alanchaotang/dr_py/raw/branch/main/libs/drpy2.min.js","searchable":2,"quickSearch":1,"filterable":0,"ext":"https://agit.ai/alanchaotang/dr_py/raw/branch/main/js/两个BT.js"},
{"key":"dr_vip影院","name":"✈️┃VIP影院┃影视","type":3,"api":"https://agit.ai/alanchaotang/dr_py/raw/branch/main/libs/drpy2.min.js","searchable":2,"quickSearch":1,"filterable":0,"ext":"https://agit.ai/alanchaotang/dr_py/raw/branch/main/js/vip影院.jsd"},
{"key": "dr_看韩剧","name":"🍕┃看韩剧┃影视","type": 3,"api": "https://agit.ai/alanchaotang/dr_py/raw/branch/main/libs/drpy2.min.js","searchable": 2,"quickSearch": 0,"filterable": 0,"ext": "https://agit.ai/alanchaotang/dr_py/raw/branch/main/js/看韩剧.js"},
{"key":"dr_二次萌","name": "🌬️┃二次萌┃影视","type": 3,"api": "https://agit.ai/alanchaotang/dr_py/raw/branch/main/libs/drpy2.min.js","searchable": 2,"quickSearch": 0,"filterable": 0,"ext": "https://agit.ai/alanchaotang/dr_py/raw/branch/main/js/二次萌影视.js"},
{"key":"dr_独播库","name": "🍃┃独播库┃影视","type": 3,"api": "https://agit.ai/alanchaotang/dr_py/raw/branch/main/libs/drpy2.min.js","searchable": 2,"quickSearch": 0,"filterable": 0,"ext": "https://agit.ai/alanchaotang/dr_py/raw/branch/main/js/独播库[飞].js"},
{"key": "dr_萌蛋蛋","name":"🥚┃萌蛋蛋┃影视","type": 3,"api": "https://agit.ai/alanchaotang/dr_py/raw/branch/main/libs/drpy2.min.js","searchable": 2,"quickSearch": 0,"filterable": 0,"ext": "https://agit.ai/alanchaotang/dr_py/raw/branch/main/js/萌蛋蛋[V2].js"},
{"key": "dr_网飞TV","name":"📺┃网飞TV┃影视","type": 3,"api": "https://agit.ai/alanchaotang/dr_py/raw/branch/main/libs/drpy2.min.js","searchable": 2,"quickSearch": 0,"filterable": 0,"ext": "https://agit.ai/alanchaotang/dr_py/raw/branch/main/js/网飞.TV.js"},
{"key": "dr_慢大浪","name":"🌊┃慢大浪┃影视","type": 3,"api": "https://agit.ai/alanchaotang/dr_py/raw/branch/main/libs/drpy2.min.js","searchable": 2,"quickSearch": 0,"filterable": 0,"ext": "https://agit.ai/alanchaotang/dr_py/raw/branch/main/js/慢大浪.js"},
{"key": "dr_哔哩兔","name":"🐰┃哔哩兔┃影院","type": 3,"api": "https://agit.ai/alanchaotang/dr_py/raw/branch/main/libs/drpy2.min.js","searchable": 2,"quickSearch": 0,"filterable": 0,"ext": "https://agit.ai/alanchaotang/dr_py/raw/branch/main/js/哔哩兔.js"},
{"key": "dr_1080P","name": "🐐┃1080┃影视","type": 3,"api": "https://agit.ai/alanchaotang/dr_py/raw/branch/main/libs/drpy2.min.js","searchable": 2,"quickSearch": 0,"filterable": 0,"ext": "https://agit.ai/alanchaotang/dr_py/raw/branch/main/js/1080P.js"},
{"key": "dr_Fun4K","name": "🐝┃Fun4K┃影视","type": 3,"api": "https://agit.ai/alanchaotang/dr_py/raw/branch/main/libs/drpy2.min.js","searchable": 2,"quickSearch": 0,"filterable": 0,"ext": "https://agit.ai/alanchaotang/dr_py/raw/branch/main/js/Fun4K.js"},
{"key":"dr_539影院","name":"🦄┃539┃影院","type": 3,"api": "https://agit.ai/alanchaotang/dr_py/raw/branch/main/libs/drpy2.min.js","searchable": 2,"quickSearch": 0,"filterable": 0,"ext": "https://agit.ai/alanchaotang/dr_py/raw/branch/main/js/539影院.js"},
{"key":"dr_美视网","name": "💫┃美视网┃影院","type": 3,"api": "https://agit.ai/alanchaotang/dr_py/raw/branch/main/libs/drpy2.min.js","searchable": 2,"quickSearch": 0,"filterable": 0,"ext": "https://agit.ai/alanchaotang/dr_py/raw/branch/main/js/美视网.js"},
{"key":"dr_骚火","name": "☃️┃骚火┃影院","type": 3,"api": "https://agit.ai/alanchaotang/dr_py/raw/branch/main/libs/drpy2.min.js","searchable": 2,"quickSearch": 0,"filterable": 0,"ext": "https://agit.ai/alanchaotang/dr_py/raw/branch/main/js/骚火电影.js"},
{"key":"dr_007影视","name":"🍆┃零零七┃影视","type": 3,"api": "https://agit.ai/alanchaotang/dr_py/raw/branch/main/libs/drpy2.min.js","searchable": 2,"quickSearch": 0,"filterable": 0,"ext": "https://agit.ai/alanchaotang/dr_py/raw/branch/main/js/007影视.js"},
{"key":"dr_333影视","name":"🌠┃三三三┃影视","type": 3,"api": "https://agit.ai/alanchaotang/dr_py/raw/branch/main/libs/drpy2.min.js","searchable": 2,"quickSearch": 0,"filterable": 0,"ext": "https://agit.ai/alanchaotang/dr_py/raw/branch/main/js/333影视.js"},
{"key": "dr_52gen","name": "🌀┃52gen┃影视","type": 3,"api": "https://agit.ai/alanchaotang/dr_py/raw/branch/main/libs/drpy2.min.js","searchable": 2,"quickSearch": 0,"filterable": 0,"ext": "https://agit.ai/alanchaotang/dr_py/raw/branch/main/js/52gen.js"},
{"key": "dr_IMAX", "name": "📺┃IMAX┃影视","type": 3,"api": "https://agit.ai/alanchaotang/dr_py/raw/branch/main/libs/drpy2.min.js","searchable": 2,"quickSearch": 0,"filterable": 0,"ext": "https://agit.ai/alanchaotang/dr_py/raw/branch/main/js/IMAX影视.js"},
{"key": "dr_home", "name": "🌈┃在线之家┃影视","type": 3,"api": "https://agit.ai/alanchaotang/dr_py/raw/branch/main/libs/drpy2.min.js","searchable": 2,"quickSearch": 0,"filterable": 0,"ext": "https://agit.ai/alanchaotang/dr_py/raw/branch/main/js/在线之家.js"},
{"key": "dr_大师兄","name":"🏃┃大师兄┃影视","type":3,"api":"https://agit.ai/alanchaotang/dr_py/raw/branch/main/libs/drpy2.min.js","searchable":2,"quickSearch":1,"filterable":0,"ext":"https://agit.ai/alanchaotang/dr_py/raw/branch/main/js/大师兄影视.js"},
{"key": "dr_影渣渣","name": "🐎┃影渣渣┃影视","type": 3,"api": "https://agit.ai/alanchaotang/dr_py/raw/branch/main/libs/drpy2.min.js","searchable": 2,"quickSearch": 0,"filterable": 0,"ext": "https://agit.ai/alanchaotang/dr_py/raw/branch/main/js/影渣渣.js"},
{"key": "dr_农民影视","name":"🤴┃农民┃影视","type": 3,"api": "https://agit.ai/alanchaotang/dr_py/raw/branch/main/libs/drpy2.min.js","searchable": 2,"quickSearch": 0,"filterable": 0,"ext": "https://agit.ai/alanchaotang/dr_py/raw/branch/main/js/农民影视.js"},
{"key": "dr_7喜影视","name":"🏮┃7喜┃影视","type": 3,"api": "https://agit.ai/alanchaotang/dr_py/raw/branch/main/libs/drpy2.min.js","searchable": 2,"quickSearch": 0,"filterable": 0,"ext": "https://agit.ai/alanchaotang/dr_py/raw/branch/main/js/7喜影院.js"},
{"key": "dr_乐猪影视","name":"🐽┃乐猪┃影视","type": 3,"api": "https://agit.ai/alanchaotang/dr_py/raw/branch/main/libs/drpy2.min.js","searchable": 2,"quickSearch": 0,"filterable": 0,"ext": "https://agit.ai/alanchaotang/dr_py/raw/branch/main/js/乐猪TV.js"},
{"key": "dr_8号影院","name": "⚽┃8号┃影视","type": 3,"api": "https://agit.ai/alanchaotang/dr_py/raw/branch/main/libs/drpy2.min.js","searchable": 2,"quickSearch": 0,"filterable": 0,"ext": "https://agit.ai/alanchaotang/dr_py/raw/branch/main/js/8号影院.js"},
{"key": "dr_创艺影视","name":"🍸️┃创艺┃影视","type": 3,"api": "https://agit.ai/alanchaotang/dr_py/raw/branch/main/libs/drpy2.min.js","searchable": 2,"quickSearch": 0,"filterable": 0,"ext": "https://agit.ai/alanchaotang/dr_py/raw/branch/main/js/创艺影视[V2].js"},
{"key": "dr_豆芽影院","name":"🌀┃豆芽┃影视","type": 3,"api": "https://agit.ai/alanchaotang/dr_py/raw/branch/main/libs/drpy2.min.js","searchable": 2,"quickSearch": 0,"filterable": 0,"ext": "https://agit.ai/alanchaotang/dr_py/raw/branch/main/js/豆芽影院.js"},
{"key": "dr_米爱影视","name":"🍬┃米爱┃影视","type": 3,"api": "https://agit.ai/alanchaotang/dr_py/raw/branch/main/libs/drpy2.min.js","searchable": 2,"quickSearch": 0,"filterable": 0,"ext": "https://agit.ai/alanchaotang/dr_py/raw/branch/main/js/米爱影视.js"},
{"key": "dr_厂长资源","name":"💸┃厂长┃影视","type": 3,"api": "https://agit.ai/alanchaotang/dr_py/raw/branch/main/libs/drpy2.min.js","searchable": 2,"quickSearch": 0,"filterable": 0,"ext": "https://agit.ai/alanchaotang/dr_py/raw/branch/main/js/厂长资源.js"},
{"key": "dr_兄弟影视","name":"🔤┃兄弟┃影视","type":3,"api":"https://agit.ai/alanchaotang/dr_py/raw/branch/main/libs/drpy2.min.js","searchable":2,"quickSearch":1,"filterable":0,"ext":"https://agit.ai/alanchaotang/dr_py/raw/branch/main/js/兄弟影视.js"},
{"key": "dr_人人影视","name":"🎎┃人人┃影视","type": 3,"api": "https://agit.ai/alanchaotang/dr_py/raw/branch/main/libs/drpy2.min.js","searchable": 2,"quickSearch": 0,"filterable": 0,"ext": "https://agit.ai/alanchaotang/dr_py/raw/branch/main/js/人人影视.js"},
{"key": "dr_咕噜咕噜","name":"🎋┃咕噜┃影视","type": 3,"api": "https://agit.ai/alanchaotang/dr_py/raw/branch/main/libs/drpy2.min.js","searchable": 2,"quickSearch": 0,"filterable": 0,"ext": "https://agit.ai/alanchaotang/dr_py/raw/branch/main/js/咕噜咕噜.js"},
{"key": "dr_天空影视","name": "🈳┃天空┃影视","type": 3,"api": "https://agit.ai/alanchaotang/dr_py/raw/branch/main/libs/drpy2.min.js","searchable": 2,"quickSearch": 0,"filterable": 0,"ext": "https://agit.ai/alanchaotang/dr_py/raw/branch/main/js/天空影视[V2].js"},
{"key": "dr_555影视","name": "🎶┃555┃影视","type": 3,"api": "https://agit.ai/alanchaotang/dr_py/raw/branch/main/libs/drpy2.min.js","searchable": 2,"quickSearch": 0,"filterable": 0,"ext": "https://agit.ai/alanchaotang/dr_py/raw/branch/main/js/555影视[V2].js"},
{"key": "dr_兰花影院","name":"🌸┃兰花┃影视","type": 3,"api": "https://agit.ai/alanchaotang/dr_py/raw/branch/main/libs/drpy2.min.js","searchable": 2,"quickSearch": 0,"filterable": 0,"ext": "https://agit.ai/alanchaotang/dr_py/raw/branch/main/js/兰花影院.js"},
{"key": "dr_双十电影","name":"⛳┃双十┃电影","type": 3,"api": "https://agit.ai/alanchaotang/dr_py/raw/branch/main/libs/drpy2.min.js","searchable": 2,"quickSearch": 0,"filterable": 0,"ext": "https://agit.ai/alanchaotang/dr_py/raw/branch/main/js/双十电影.js"},
{"key": "dr_首播影院","name":"🚑┃首播┃影院","type": 3,"api": "https://agit.ai/alanchaotang/dr_py/raw/branch/main/libs/drpy2.min.js","searchable": 2,"quickSearch": 0,"filterable": 0,"ext": "https://agit.ai/alanchaotang/dr_py/raw/branch/main/js/首播影院.js"},
{"key": "dr_蓝光影院","name":"💿┃蓝光┃影院","type": 3,"api": "https://agit.ai/alanchaotang/dr_py/raw/branch/main/libs/drpy2.min.js","searchable": 2,"quickSearch": 0,"filterable": 0,"ext": "https://agit.ai/alanchaotang/dr_py/raw/branch/main/js/蓝光影院.js"},
{"key": "dr_大豆影院","name":"👽┃大豆┃影院","type": 3,"api": "https://agit.ai/alanchaotang/dr_py/raw/branch/main/libs/drpy2.min.js","searchable": 2,"quickSearch": 0,"filterable": 0,"ext": "https://agit.ai/alanchaotang/dr_py/raw/branch/main/js/大豆.js"},
{"key": "dr_HG影院","name":  "🎏┃HG┃影院","type": 3,"api": "https://agit.ai/alanchaotang/dr_py/raw/branch/main/libs/drpy2.min.js","searchable": 2,"quickSearch": 0,"filterable": 0,"ext": "https://agit.ai/alanchaotang/dr_py/raw/branch/main/js/HG影院[V2].js"},
{"key": "dr_云镜影视","name":"🐸┃云镜┃影视","type": 3,"api": "https://agit.ai/alanchaotang/dr_py/raw/branch/main/libs/drpy2.min.js","searchable": 2,"quickSearch": 0,"filterable": 0,"ext": "https://agit.ai/alanchaotang/dr_py/raw/branch/main/js/云镜影视.js"},
{"key": "dr_零度影视","name":"🍓┃零度┃影视","type": 3,"api": "https://agit.ai/alanchaotang/dr_py/raw/branch/main/libs/drpy2.min.js","searchable": 2,"quickSearch": 0,"filterable": 0,"ext": "https://agit.ai/alanchaotang/dr_py/raw/branch/main/js/零度影视.js"},
{"key": "dr_稀饭影视","name":"🍚┃稀饭┃影视","type": 3,"api": "https://gitee.com/alanchaotang/data/raw/master/js/drpy.min.js","searchable": 2,"quickSearch": 0,"filterable": 0,"ext": "https://agit.ai/alanchaotang/dr_py/raw/branch/main/js/稀饭影视.js"},
{"key": "dr_爱看影院","name":"💝┃爱看┃影院","type": 3,"api": "https://gitee.com/alanchaotang/data/raw/master/js/drpy.min.js","searchable": 2,"quickSearch": 0,"filterable": 0,"ext": "https://agit.ai/alanchaotang/dr_py/raw/branch/main/js/爱看影院.js"},
{"key": "dr_干饭影视","name":"🐑┃干饭┃影视","type": 3,"api": "https://agit.ai/alanchaotang/dr_py/raw/branch/main/libs/drpy2.min.js","searchable": 2,"quickSearch": 0,"filterable": 0,"ext": "https://agit.ai/alanchaotang/dr_py/raw/branch/main/js/干饭影视.js"},
{"key": "dr_起飞影院","name":"🐯┃起飞┃影院","type": 3,"api": "https://agit.ai/alanchaotang/dr_py/raw/branch/main/libs/drpy2.min.js","searchable": 2,"quickSearch": 0,"filterable": 0,"ext": "https://agit.ai/alanchaotang/dr_py/raw/branch/main/js/起飞影院.js"},
{"key": "dr_小狗影院","name":"🐶┃小狗┃影院","type": 3,"api": "https://agit.ai/alanchaotang/dr_py/raw/branch/main/libs/drpy2.min.js","searchable": 2,"quickSearch": 0,"filterable": 0,"ext": "https://agit.ai/alanchaotang/dr_py/raw/branch/main/js/小狗影院.js"},
{"key": "dr_lingyun","name": "🍩┃凌云┃影院","type": 3,"api": "https://agit.ai/alanchaotang/dr_py/raw/branch/main/libs/drpy2.min.js","searchable": 2,"quickSearch": 0,"filterable": 0,"ext": "https://gitee.com/alanchaotang/data/raw/master/js/lingyun.js"},
{"key": "dr_飞兔影视","name":"🐟┃飞兔┃影视","type": 3,"api": "https://agit.ai/alanchaotang/dr_py/raw/branch/main/libs/drpy2.min.js","searchable": 2,"quickSearch": 0,"filterable": 0,"ext":"https://agit.ai/alanchaotang/dr_py/raw/branch/main/js/飞兔影视.js"},
{"key": "dr_B站影视","name": "🌺┃B站┃影视","type": 3,"api": "https://agit.ai/alanchaotang/dr_py/raw/branch/main/libs/drpy2.min.js","searchable": 2,"quickSearch": 0,"filterable": 0,"ext": "https://agit.ai/alanchaotang/dr_py/raw/branch/main/js/B站影视.js"},
{"key": "dr_冷曦影视","name":"🍑┃冷曦┃影视","type":3,"api":"https://agit.ai/alanchaotang/dr_py/raw/branch/main/libs/drpy2.min.js","searchable":2,"quickSearch":1,"filterable":0,"ext":"https://agit.ai/alanchaotang/dr_py/raw/branch/main/js/冷曦影视.js"},
{"key":"csp_XPath_age","name":"🐰┃AGE┃动漫","type": 3,"api": "csp_XPath","searchable": 1,"quickSearch": 0,"filterable": 1,"ext": "https://agit.ai/alanchaotang/if/raw/branch/main/json/AGE动漫.json"},
{"key": "dr_广播迷FM","name":"📢┃广播迷┃FM","type":3,"api":"https://agit.ai/alanchaotang/dr_py/raw/branch/main/libs/drpy2.min.js","searchable":2,"quickSearch":1,"filterable":0,"ext":"https://agit.ai/alanchaotang/dr_py/raw/branch/main/js/广播迷FM.js"},
{"key": "dr_蜻蜓FM","name":"🍃┃蜻蜓广播┃FM","type":3,"api":"https://agit.ai/alanchaotang/dr_py/raw/branch/main/libs/drpy2.min.js","searchable":2,"quickSearch":1,"filterable":0,"ext":"https://agit.ai/alanchaotang/dr_py/raw/branch/main/js/蜻蜓FM.js"},
{"key": "dr_种子音乐","name":"🎷┃种子音乐┃娱乐","type":3,"api":"https://agit.ai/alanchaotang/dr_py/raw/branch/main/libs/drpy2.min.js","searchable":2,"quickSearch":1,"filterable":0,"ext":"https://agit.ai/alanchaotang/dr_py/raw/branch/main/js/种子音乐.js"},
{"key": "dr_苹果DJ","name":"🎸┃苹果DJ┃娱乐","type":3,"api":"https://agit.ai/alanchaotang/dr_py/raw/branch/main/libs/drpy2.min.js","searchable":2,"quickSearch":1,"filterable":0,"ext":"https://agit.ai/alanchaotang/dr_py/raw/branch/main/js/苹果DJ.js"},
{"key": "csp_XYQHiker_MV263","name":"🎸┃MV263┃娱乐","type":3,"api":"csp_XYQHiker","searchable":0,"quickSearch":0,"filterable":1,"ext":"https://agit.ai/alanchaotang/if/raw/branch/main/json/MV263.json","jar":"https://agit.ai/alanchaotang/if/raw/branch/main/jar/xiangyaqing.jar"},
{"key": "csp_XYQHiker_酷奇MV","name":"Ⓜ️┃酷奇MV┃娱乐","type":3,"api":"csp_XYQHiker","searchable":0,"quickSearch":0,"filterable":1,"ext":"https://agit.ai/alanchaotang/if/raw/branch/main/json/酷奇MV.json","jar":"https://agit.ai/alanchaotang/if/raw/branch/main/jar/xiangyaqing.jar"},
{"key":"push_agent","name":"▶┃推送┃磁力","type":3,"api":"csp_Push","playerType":1,"searchable":0,"quickSearch":0,"filterable":0,"ext":"http://192.168.1.4:5244/Alan/Alist/token.txt"},
{"key":"csp_Paper","name":"📜┃纸条┃云盘","type":3,"api":"csp_Paper","playerType":1,"searchable":1,"quickSearch":1,"filterable":1,"ext":"http://192.168.1.4:5244/Alan/Alist/token.txt"},
{"key":"csp_bendi","name":"📂┃本地┃视频","type":3,"api":"csp_LocalFile","searchable":0,"quickSearch":0,"filterable":0,"type_flag":1},
{"key": "WebDAV","name": "🎥┃WebDAV┃影视仓库","type": 3,"api": "csp_WebDAV","searchable": 1,"filterable": 1,"changeable": 0,"ext": "https://ghproxy.net/http://raw.github.com/alantang1977/CatVodSpider/master/json/webdav.json","jar":"https://ghproxy.net/http://raw.github.com/alantang1977/CatVodSpider/master/jar/custom_spider.jar"},
{"key":"csp_Anime1","name":"📯SP┃日本┃动漫","type":3,"api":"csp_Anime1","searchable":1,"quickSearch":1,"filterable":1}],

//"wallpaper": "https://tian.chuqiuyu.tk/",
"wallpaper": "http://饭太硬.top/深色壁纸/api.php",  
//"spider":"https://agit.ai/alanchaotang/if/raw/branch/main/jar/tang.jar;md5;bace77c91270566ca6a959b935efbd0d", 
"spider":"https://files.zohopublic.com.cn/public/workdrive-public/download/uyv0t678c488189af47bb91dc108484d17431;md5;a5eaab0a824b174e0024d75e1d8731ff", 
  
//"lives": [{"name": "live","type": 0,"url": "https://agit.ai/alanchaotang/if/raw/branch/main/LIVE/TV.txt","playerType": 1,"epg": "http://epg.112114.xyz/?ch={name}&date={date}","logo": "https://epg.112114.xyz/logo/{name}.png"},
//{"name":"TV","type":0,"url":"https://agit.ai/alanchaotang/if/raw/branch/main/LIVE/global.m3u","epg":"http://epg.112114.xyz/?ch={name}&date={date}","logo":"https://epg.112114.xyz/logo/{name}.png"}],

"lives": [{"name": "live","type": 0,"url": "https://agit.ai/alanchaotang/if/raw/branch/main/LIVE/l.txt","epg": "http://epg.112114.xyz/?ch={name}&date={date}","logo": "https://epg.112114.xyz/logo/{name}.png","ua": "Mozilla/5.0 (Windows NT 10.0; Win64; x64) AppleWebKit/537.36 (KHTML, like Gecko) Chrome/108.0.0.0 Safari/537.36","playerType": 1}],

"parses": [
{"name":"自动解析","type":3,"url":"Demo"},
//{"name":"自动并发","type": 2,"url": "Parallel"},
//{"name":"自动轮询","type": 2,"url": "Sequence"},
{"name":"Web解析聚合","type":3,"url":"Web"},
{"name":"🛩️刚刚走过","type": 1,"url":"http://27.124.4.42:4567/jhjson/ceshi.php?url="},
{"name":"🛩️刚刚又来了","type": 1,"url": "http://27.124.4.42:4567/jhjson/ceshi.php?url=","ext": {"flag": ["qq", "腾讯", "qiyi", "爱奇艺", "奇艺", "youku", "优酷", "mgtv", "芒果", "letv", "乐视", "pptv", "PPTV", "sohu", "bilibili", "哔哩哔哩", "哔哩"],"header":{"User-Agent":"okhttp/4.1.0"}}},
{"name":"🎶party1（多多）","type":1,"url":"https://vip.xuux.icu/home/api?type=ys&uid=1325731&key=adfgilmnpwzBDEJPY3&url=","ext": {"flag": ["qq", "腾讯", "qiyi", "爱奇艺", "奇艺", "youku", "优酷", "mgtv", "芒果", "letv", "乐视", "pptv", "PPTV", "sohu", "bilibili", "哔哩哔哩", "哔哩"],"header":{"User-Agent":"okhttp/4.1.0"}}},
{"name": "🚍众里寻他千百度","type": 0,"url": "https://jx.zhanlangbu.com/?url=","ext": {"header": {"User-Agent": "okhttp/4.1.0"},"flag": ["qq","腾讯","qiyi","爱奇艺","奇艺","youku","优酷","mgtv","芒果","letv","乐视","pptv","PPTV","sohu","bilibili","哔哩哔哩","哔哩"]}},
{"name": "🌳飞云","type": 0,"url": "https://www.kankanju.cc/f/jxplayer.php?v=","flag": ["Feiyun-","mgtv","芒果"]},
{"name": "🌟星辰云解析","type": 1,"url": "https://json.key521.cn/api/?key=df27d9ca9ec97e22c47f8565a50aa6f5&url="},
{"name":"🐻左岸","type":1,"url":"http://110.42.2.247:880/analysis/json/?uid=2449&my=acfgikquvzFGJRW459&url=","ext":{"flag":["qq","腾讯","qiyi","爱奇艺","奇艺","youku","优酷","sohu","搜狐","letv","乐视","imgo","mgtv","芒果","rx","ltnb","bilibili","1905","xigua"]}},
{"name": "🐈肥猫但行好事","type": 1,"url": "http://jx.fuqizhishi.com:63/接口地址www.肥猫.love/肥猫专用.php?url="},
{"name": "🐠小鱼解析", "type": 1, "url": "http://json.84jia.com/home/api?type=ys&uid=335253&key=fjklpqsyCDGMNQRWX8&url="},
{"name": "🔆小新解析", "type": 1, "url": "http://xiaoxin.1080p.me/home/api?type=ys&uid=2781037&key=eijkoqxBDFGILRTUWZ&url="},
{"name": "🏯小城解析", "type": 1, "url": "https://jx.ccabc.cc/xc/?key=5567332json&url="},
{"name": "🚛运输车","type": 1,"url": "http://bingfa.behds.cn/indexappzhuanyong.php?url=","ext": {"flag": ["qq", "腾讯", "qiyi", "爱奇艺", "奇艺", "youku", "优酷", "mgtv", "芒果", "letv", "乐视", "pptv", "PPTV", "sohu", "bilibili", "哔哩哔哩", "哔哩"],"header":{"User-Agent":"okhttp/4.1.0"}}},
{"name": "🍂小米落叶🍂","type": 1,"url": "http://xhww.fun:63/公众号1神秘的哥哥们.php?url=","User-Agent": "okhttp/3.12.0", "ext": {"flag": ["qq","ruyi4K","腾讯","hgvip","hgyx","qiyi","爱奇艺","奇艺","youku","优酷","sohu","搜狐","letv","乐视","XAl","yk","mgtv","imgo","芒果","CL4K","Feiyun-","hulihuli-","ltnb","bilibili","BAGY","SLYS4K","DM-FT1","DM-FT3","bilibili","1905","xigua"]}}, 
{"name": "✌️小米夜曲✌️","type": 1,"url": "http://xhww.fun:63/爱肥猫.php?url=","ext": {"flag": ["qq", "腾讯", "qiyi", "爱奇艺", "奇艺", "youku", "优酷", "sohu", "搜狐", "letv", "乐视", "mgtv", "芒果", "CL4K", "renrenmi", "ltnb", "bilibili", "1905", "xigua", "nongmin", "CL4K", "xfyun", "ffm3u8", "lzm3u8", "netease", "pgyer", "qzone", "FY", "ppayun", "Feiyun", "zhibo"],"header": {"User-Agent": "Dalvik/2.1.0 (Linux; U; Android 10; PDHM00 Build/QKQ1.191222.002)"}}}, 
{"name": "🌾小米稻香🌾","type": 1,"url": "https://vip.mosangkeji.com/api/?key=rRNvXAnOghBBLnC35c&url=","flag": ["mgtv","qiyi","imgo","爱奇艺","奇艺","qq","腾讯","youku","优酷","pptv","PPTV","letv","乐视","leshi",	"bilibili","哔哩哔哩","哔哩","mgtv","芒果","芒果"]},
{"name": "🪟小米窗外🪟","type": 1,"url": "http://43.143.107.57:417//api//?key=73259318e3d893e5b73fd87f20fbc2f7&url=","header": {"User-Agent": "Dart/2.14 (dart:io)"},"ext": {"flag": ["qq","腾讯","youku","hulihuli","hulihuli-","优酷"]}},
{"name": "🍂小米落叶🍂","type": 1,"url": "https://110.42.2.98:33333//api//?key=6JsNUcM5473RcARVLg&url=","flag": ["mgtv","qiyi","imgo","爱奇艺","奇艺","qq","腾讯","youku","优酷","pptv","PPTV","letv","乐视","leshi","bilibili","哔哩哔哩","哔哩","mgtv","芒果","芒果"]},
{"name": "🥭小米芒果🥭","type": 1,"url": "https://jx.255tv.tk/api/?key=S6kQHaE1gVEY5KAv8L&url=","flag": ["imgo","mgtv","芒果"]},
{"name": "🦐小米虾米🦐","url": "http://162.14.106.28/API.php?url=","type": 1,"ext": {"flag": ["qiyi","imgo","爱奇艺","奇艺","qq","腾讯","youku","优酷","pptv","PPTV","letv","乐视","leshi","bilibili","哔哩哔哩","哔哩","mgtv","芒果","sohu","xigua","fun","风行"	],"header": {"User-Agent": "Mozilla/5.0"}},"header": {"Referer": "https://jx.baiyu521.xyz/"}},
{"name": "🍌小米黄黄🍌","type": 1,"url": "https://vip.xiaomaomi.tv//api.php?key=iknrzBCDIMPQRTY279&url=","User-Agent": "Dart/2.18 (dart:io)","ext": {"flag": ["qq","腾讯","qiyi","爱奇艺","奇艺","youku","优酷","sohu","搜狐","letv","乐视","yk","CL4K","renrenmi","ltnb","bilibili","1905","xigua"]}},
{"name": "👓小米爱酷👓","type": 1,"url": "https://api.json.icu//api//?key=aad5c2c72819716157511ef080f8d05f&url=","ext":{"flag": ["qq","腾讯","qiyi","爱奇艺","奇艺","youku","优酷","sohu","搜狐","letv","乐视","yk","CL4K","renrenmi","ltnb","bilibili","1905","xigua"]}},
{"name":"🏳️‍🌈party2（多多）","type": 1,"url": "http://110.42.2.247:880/analysis/json/?uid=2100&my=afimnpqrvBHJKOQS47&mgtv=app&url="}, 	
{"name":"🐈party3（多多）","type": 1,"url": "http://json.xg688.top/api/?key=Y1etBkWn5hetOHJwF1&url="},
{"name":"🕢party3（多多）","type": 0,"url": "https://jx.777jiexi.com/player/?url="},	  
{"name":"keyu","type":1,"url":"http://newjiexi.gotka.top/keyu3.php?url=","ext":{"flag":["qq","腾讯","qiyi","爱奇艺","奇艺","youku","优酷","mgtv","芒果","letv","乐视","pptv","PPTV","sohu","bilibili","哔哩哔哩","哔哩"],"header":{"User-Agent":"okhttp/4.1.0"}}}],

"doh": [{"name": "Google","url": "https://dns.google/dns-query","ips": ["8.8.4.4","8.8.8.8"]},{"name": "Cloudflare","url": "https://cloudflare-dns.com/dns-query","ips": ["1.1.1.1","1.0.0.1","2606:4700:4700::1111","2606:4700:4700::1001"]},{"name": "AdGuard","url":"https://dns.adguard.com/dns-query","ips":["94.140.14.140","94.140.14.141"]},{"name": "DNSWatch","url": "https://resolver2.dns.watch/dns-query","ips":["84.200.69.80","84.200.70.40"]},{"name": "Quad9","url": "https://dns.quad9.net/dns-quer","ips": ["9.9.9.9","149.112.112.112"]}],
"rules":[{"name":"量子","hosts":["vip.lz","hd.lz"],"regex":["#EXT-X-DISCONTINUITY\\r*\\n*#EXTINF:6.433333,[\\s\\S]*?#EXT-X-DISCONTINUITY"]},{"name":"非凡","hosts":["vip.ffzy","hd.ffzy"],"regex":["#EXT-X-DISCONTINUITY\\r*\\n*#EXTINF:6.666667,[\\s\\S]*?#EXT-X-DISCONTINUITY"]},{"name":"火山嗅探","hosts":["huoshan.com"],"regex":["item_id="]},{"name":"抖音嗅探","hosts":["douyin.com"],"regex":["is_play_url="]}],

"flags":["youku","qq","iqiyi","qiyi","letv","sohu","tudou","pptv","mgtv","wasu","bilibili","优酷","芒果","腾讯","爱奇艺","奇艺","duoduozy","longteng","renrenmi","ltnb","rx","xueren","xfyun","ziqie","wuduzy","CL4K","xuanfeng","1905","1920i","mim3u8","laodim3u8","leduo","rongxing","wuduyun","xueren","naifeimi","miaoparty","miaoparty2","miaoparty3","xfy","xfyun","x1play","fuckapp","ftqp2","ftqp3","ftqp4","ftqp5","1920l"],
"ijk":[

{"group":"软解码","options":[{"category":4,"name":"opensles","value":"0"},{"category":4,"name":"overlay-format","value":"842225234"},{"category":4,"name":"framedrop","value":"1"},{"category":4,"name":"soundtouch","value":"1"},{"category":4,"name":"start-on-prepared","value":"1"},{"category":1,"name":"http-detect-rangeupport","value":"0"},{"category":1,"name":"fflags","value":"fastseek"},{"category":2,"name":"skip_loop_filter","value":"48"},{"category":4,"name":"reconnect","value":"1"},{"category":4,"name":"enable-accurateeek","value":"0"},{"category":4,"name":"mediacodec","value":"0"},{"category":4,"name":"mediacodec-auto-rotate","value":"0"},{"category":4,"name":"mediacodec-handle-resolution-change","value":"0"},{"category":4,"name":"mediacodec-hevc","value":"0"},{"category":1,"name":"dns_cache_timeout","value":"600000000"}]},

{"group":"硬解码","options":[{"category":4,"name":"opensles","value":"0"},{"category":4,"name":"overlay-format","value":"842225234"},{"category":4,"name":"framedrop","value":"1"},{"category":4,"name":"soundtouch","value":"1"},{"category":4,"name":"start-on-prepared","value":"1"},{"category":1,"name":"http-detect-rangeupport","value":"0"},{"category":1,"name":"fflags","value":"fastseek"},{"category":2,"name":"skip_loop_filter","value":"48"},{"category":4,"name":"reconnect","value":"1"},{"category":4,"name":"enable-accurateeek","value":"0"},{"category":4,"name":"mediacodec","value":"1"},{"category":4,"name":"mediacodec-auto-rotate","value":"1"},{"category":4,"name":"mediacodec-handle-resolution-change","value":"1"},{"category":4,"name":"mediacodec-hevc","value":"1"},{"category":1,"name":"dns_cache_timeout","value":"600000000"}]}],

"ads":["mimg.0c1q0l.cn","www.googletagmanager.com","www.google-analytics.com","mc.usihnbcq.cn","mg.g1mm3d.cn","mscs.svaeuzh.cn","cnzz.hhttm.top","tp.vinuxhome.com","cnzz.mmstat.com","www.baihuillq.com","s23.cnzz.com","z3.cnzz.com","c.cnzz.com","stj.v1vo.top","z12.cnzz.com","img.mosflower.cn","tips.gamevvip.com","ehwe.yhdtns.com","xdn.cqqc3.com","www.jixunkyy.cn","sp.chemacid.cn","hm.baidu.com","s9.cnzz.com","z6.cnzz.com","um.cavuc.com","mav.mavuz.com","wofwk.aoidf3.com","z5.cnzz.com","xc.hubeijieshikj.cn","tj.tianwenhu.com","xg.gars57.cn","k.jinxiuzhilv.com","cdn.bootcss.com","ppl.xunzhuo123.com","xomk.jiangjunmh.top","img.xunzhuo123.com","z1.cnzz.com","s13.cnzz.com","xg.huataisangao.cn","z7.cnzz.com","xg.huataisangao.cn","z2.cnzz.com","s96.cnzz.com","q11.cnzz.com","thy.dacedsfa.cn","xg.whsbpw.cn","s19.cnzz.com","z8.cnzz.com","s4.cnzz.com","f5w.as12df.top","ae01.alicdn.com","www.92424.cn","k.wudejia.com","vivovip.mmszxc.top","qiu.xixiqiu.com","cdnjs.hnfenxun.com","cms.qdwght.com"]}
